Projet_HDL/CptNbits/simulation/qsim/CptNbitsNat.msim.vcd
$comment
	File created using the following command:
		vcd file CptNbitsNat.msim.vcd -direction
$end
$date
	Mon Sep 27 19:01:45 2021
$end
$version
	ModelSim Version 2020.1
$end
$timescale
	1ps
$end

$scope module CptNbitsNatTL_vlg_vec_tst $end
$var reg 1 ! Clk $end
$var reg 1 " Sens $end
$var reg 1 # nReset $end
$var reg 1 $ nSet $end
$var wire 1 % Cpt [0] $end
$var wire 1 & Cpt [1] $end
$var wire 1 ' Cpt [2] $end
$var wire 1 ( Cpt [3] $end

$scope module i1 $end
$var wire 1 ) gnd $end
$var wire 1 * vcc $end
$var wire 1 + unknown $end
$var tri1 1 , devclrn $end
$var tri1 1 - devpor $end
$var tri1 1 . devoe $end
$var wire 1 / Cpt[3]~output_o $end
$var wire 1 0 Cpt[2]~output_o $end
$var wire 1 1 Cpt[1]~output_o $end
$var wire 1 2 Cpt[0]~output_o $end
$var wire 1 3 Clk~input_o $end
$var wire 1 4 Sens~input_o $end
$var wire 1 5 nReset~input_o $end
$var wire 1 6 nSet~input_o $end
$var wire 1 7 Add0~1_cout $end
$var wire 1 8 Add0~2_combout $end
$var wire 1 9 Cpt~4_combout $end
$var wire 1 : Add0~3 $end
$var wire 1 ; Add0~4_combout $end
$var wire 1 < Cpt~7_combout $end
$var wire 1 = Cpt[1]~reg0_q $end
$var wire 1 > Cpt~5_combout $end
$var wire 1 ? Cpt~8_combout $end
$var wire 1 @ Add0~5 $end
$var wire 1 A Add0~6_combout $end
$var wire 1 B Cpt~9_combout $end
$var wire 1 C Cpt[0]~reg0_q $end
$var wire 1 D Cpt~6_combout $end
$var wire 1 E Cpt~10_combout $end
$var wire 1 F Cpt[2]~reg0_q $end
$var wire 1 G Cpt~2_combout $end
$var wire 1 H Cpt~3_combout $end
$var wire 1 I Cpt[3]~reg0_q $end
$upscope $end
$upscope $end
$enddefinitions $end
#0
$dumpvars
0!
1"
1#
1$
0(
0'
0&
0%
0)
1*
x+
1,
1-
1.
0/
00
01
02
03
14
15
16
07
18
09
1:
1;
0<
0=
1>
1?
0@
1A
1B
0C
0D
0E
0F
1G
1H
0I
$end
#1250000
1!
13
#1280000
0$
06
19
0H
1E
#2500000
0!
03
1C
1F
10
12
1D
0A
0?
0>
0:
08
1%
1'
1@
0;
1A
#3750000
1!
13
#5000000
0!
03
#6250000
1!
13
#7500000
0!
03
#8750000
1!
13
#8960000
1$
16
09
1H
0E
#10000000
0!
03
0F
1I
1/
00
1:
18
17
0'
1(
0H
0@
1;
0:
08
1E
0A
1@
0;
1<
0E
1A
0B
0<
1B
#11250000
1!
13
#12500000
0!
03
0I
0/
1>
07
0(
1H
1:
18
0@
1;
1E
0A
1<
0B
#13750000
1!
13
#15000000
0!
03
1=
0C
1F
1I
1/
10
02
11
0>
1@
0;
0D
1A
1?
0:
08
17
1&
0%
1'
1(
0H
1D
0?
0A
1;
18
0<
0E
1B
1E
0B
1<
#16250000
1!
13
#17500000
0!
03
0I
0/
07
0(
1H
08
0E
#18750000
1!
13
#20000000
0!
03
0F
1I
1/
00
1:
18
17
0'
1(
0H
0;
0:
08
1E
1;
0<
0E
1<
#21250000
1!
13
#22500000
0!
03
0I
0/
07
0(
1H
1:
18
0;
1E
0<
#23750000
1!
13
#25000000
0!
03
0=
1F
1I
1/
10
01
0@
1;
0:
08
17
0&
1'
1(
0H
1A
1@
0;
18
1<
0E
0A
1B
0<
1E
0B
#26250000
1!
13
#27500000
0!
03
0I
0/
07
0(
1H
08
0E
#28750000
1!
13
#30000000
0!
03
0F
1I
1/
00
1:
18
17
0'
1(
0H
0@
1;
0:
08
1E
1A
1@
0;
1<
0E
0A
1B
0<
0B
#31250000
1!
13
#32500000
0!
03
0I
0/
1>
07
0(
1H
0D
1?
1:
18
0@
1;
1B
1A
#33750000
1!
13
#35000000
0!
03
1C
1I
1/
12
1D
0A
0?
0>
17
1%
1(
0H
0:
08
1E
0B
1<
1@
0;
0E
1A
0<
1B
#36250000
1!
13
#37500000
0!
03
0I
0/
1>
07
0(
1H
1:
18
0@
1;
1E
0A
1<
0B
#38750000
1!
13
#40000000
0!
03
1=
0C
1F
1I
1/
10
02
11
0>
1@
0;
0D
1A
1?
0:
08
17
1&
0%
1'
1(
0H
1D
0?
0A
1;
18
0<
0E
1B
1E
0B
1<
#41250000
1!
13
#42500000
0!
03
0I
0/
07
0(
1H
08
0E
#43750000
1!
13
#45000000
0!
03
0F
1I
1/
00
1:
18
17
0'
1(
0H
0;
0:
08
1E
1;
0<
0E
1<
#46250000
1!
13
#47360000
0"
04
1A
0;
1:
18
0@
1;
1B
0<
1E
0A
1<
0B
#47500000
0!
03
1F
0I
0/
10
0:
08
07
1'
0(
1H
1@
0;
1:
18
0E
1A
0@
1;
0<
1E
0A
1B
1<
0B
#48750000
1!
13
#50000000
0!
03
1I
1/
17
1(
0H
0:
08
1@
0;
0E
1A
0<
1B
#51250000
1!
13
#52500000
0!
03
0=
1C
0F
0I
0/
00
12
01
1>
0@
1;
0D
0A
1:
18
07
0&
1%
0'
0(
1H
1D
1A
0;
08
0B
1B
#53750000
1!
13
#55000000
0!
03
1I
1/
0>
17
1(
0H
0D
18
0B
#56250000
1!
13
#57500000
0!
03
0C
0I
0/
02
1D
0A
1>
07
0%
0(
1H
08
1E
0E
#58750000
1!
13
#60000000
0!
03
1I
1/
0>
17
1(
0H
18
1E
#61250000
1!
13
#62500000
0!
03
1F
0I
0/
10
0:
08
07
1'
0(
1H
1;
1:
18
0E
0;
1<
1E
0<
#63750000
1!
13
#65000000
0!
03
1I
1/
17
1(
0H
0:
08
1;
0E
1<
#66250000
1!
13
#67500000
0!
03
1=
0F
0I
0/
00
11
1@
0;
1:
18
07
1&
0'
0(
1H
1A
0@
1;
08
0<
1E
0A
1B
1<
0E
0B
#68750000
1!
13
#70000000
0!
03
1I
1/
17
1(
0H
18
1E
#71250000
1!
13
#72500000
0!
03
1F
0I
0/
10
0:
08
07
1'
0(
1H
1@
0;
1:
18
0E
1A
0@
1;
0<
1E
0A
1B
1<
0B
#73750000
1!
13
#75000000
0!
03
1I
1/
17
1(
0H
0:
08
1@
0;
0E
1A
0<
1B
#76160000
0#
05
0D
0B
#76250000
1!
13
#77500000
0!
03
0=
0F
0I
0/
00
01
1>
0@
1;
1:
18
07
0&
0'
0(
0A
0;
08
#78750000
1!
13
#80000000
0!
03
#81250000
1!
13
#82500000
0!
03
#83750000
1!
13
#85000000
0!
03
#86250000
1!
13
#87500000
0!
03
#88750000
1!
13
#90000000
0!
03
#90240000
1#
15
1D
1H
#91250000
1!
13
#92500000
0!
03
1I
1/
0>
17
1(
0H
18
1E
#93750000
1!
13
#95000000
0!
03
1F
0I
0/
10
0:
08
07
1'
0(
1H
1;
1:
18
0E
0;
1<
1E
0<
#96250000
1!
13
#97500000
0!
03
1I
1/
17
1(
0H
0:
08
1;
0E
1<
#98750000
1!
13
