Projet_HDL/Split/simulation/qsim/SplitByDec.msim.vcd
$comment
	File created using the following command:
		vcd file SplitByDec.msim.vcd -direction
$end
$date
	Mon Sep 27 15:01:56 2021
$end
$version
	ModelSim Version 10.5b
$end
$timescale
	1ps
$end

$scope module SplitByDecTL_vlg_vec_tst $end
$var reg 8 ! Dist [7:0] $end
$var wire 1 " S1 [3] $end
$var wire 1 # S1 [2] $end
$var wire 1 $ S1 [1] $end
$var wire 1 % S1 [0] $end
$var wire 1 & S2 [3] $end
$var wire 1 ' S2 [2] $end
$var wire 1 ( S2 [1] $end
$var wire 1 ) S2 [0] $end
$var wire 1 * S3 [3] $end
$var wire 1 + S3 [2] $end
$var wire 1 , S3 [1] $end
$var wire 1 - S3 [0] $end

$scope module i1 $end
$var wire 1 . gnd $end
$var wire 1 / vcc $end
$var wire 1 0 unknown $end
$var tri1 1 1 devclrn $end
$var tri1 1 2 devpor $end
$var tri1 1 3 devoe $end
$var wire 1 4 S1[0]~output_o $end
$var wire 1 5 S1[1]~output_o $end
$var wire 1 6 S1[2]~output_o $end
$var wire 1 7 S1[3]~output_o $end
$var wire 1 8 S2[0]~output_o $end
$var wire 1 9 S2[1]~output_o $end
$var wire 1 : S2[2]~output_o $end
$var wire 1 ; S2[3]~output_o $end
$var wire 1 < S3[0]~output_o $end
$var wire 1 = S3[1]~output_o $end
$var wire 1 > S3[2]~output_o $end
$var wire 1 ? S3[3]~output_o $end
$var wire 1 @ Dist[0]~input_o $end
$var wire 1 A Dist[1]~input_o $end
$var wire 1 B Dist[4]~input_o $end
$var wire 1 C Dist[3]~input_o $end
$var wire 1 D Dist[7]~input_o $end
$var wire 1 E Dist[6]~input_o $end
$var wire 1 F Dist[5]~input_o $end
$var wire 1 G Div0|auto_generated|divider|divider|add_sub_6_result_int[2]~1 $end
$var wire 1 H Div0|auto_generated|divider|divider|add_sub_6_result_int[3]~3 $end
$var wire 1 I Div0|auto_generated|divider|divider|add_sub_6_result_int[4]~5 $end
$var wire 1 J Div0|auto_generated|divider|divider|add_sub_6_result_int[5]~7 $end
$var wire 1 K Div0|auto_generated|divider|divider|add_sub_6_result_int[6]~9 $end
$var wire 1 L Div0|auto_generated|divider|divider|add_sub_6_result_int[7]~10_combout $end
$var wire 1 M Dist[2]~input_o $end
$var wire 1 N Div0|auto_generated|divider|divider|StageOut[54]~0_combout $end
$var wire 1 O Div0|auto_generated|divider|divider|add_sub_6_result_int[6]~8_combout $end
$var wire 1 P Div0|auto_generated|divider|divider|StageOut[54]~1_combout $end
$var wire 1 Q Div0|auto_generated|divider|divider|StageOut[53]~2_combout $end
$var wire 1 R Div0|auto_generated|divider|divider|add_sub_6_result_int[5]~6_combout $end
$var wire 1 S Div0|auto_generated|divider|divider|StageOut[53]~3_combout $end
$var wire 1 T Div0|auto_generated|divider|divider|StageOut[52]~4_combout $end
$var wire 1 U Div0|auto_generated|divider|divider|add_sub_6_result_int[4]~4_combout $end
$var wire 1 V Div0|auto_generated|divider|divider|StageOut[52]~5_combout $end
$var wire 1 W Div0|auto_generated|divider|divider|StageOut[51]~6_combout $end
$var wire 1 X Div0|auto_generated|divider|divider|add_sub_6_result_int[3]~2_combout $end
$var wire 1 Y Div0|auto_generated|divider|divider|StageOut[51]~7_combout $end
$var wire 1 Z Div0|auto_generated|divider|divider|StageOut[50]~8_combout $end
$var wire 1 [ Div0|auto_generated|divider|divider|add_sub_6_result_int[2]~0_combout $end
$var wire 1 \ Div0|auto_generated|divider|divider|StageOut[50]~9_combout $end
$var wire 1 ] Div0|auto_generated|divider|divider|StageOut[49]~10_combout $end
$var wire 1 ^ Div0|auto_generated|divider|divider|StageOut[49]~11_combout $end
$var wire 1 _ Div0|auto_generated|divider|divider|add_sub_7_result_int[2]~1_cout $end
$var wire 1 ` Div0|auto_generated|divider|divider|add_sub_7_result_int[3]~3_cout $end
$var wire 1 a Div0|auto_generated|divider|divider|add_sub_7_result_int[4]~5_cout $end
$var wire 1 b Div0|auto_generated|divider|divider|add_sub_7_result_int[5]~7_cout $end
$var wire 1 c Div0|auto_generated|divider|divider|add_sub_7_result_int[6]~9_cout $end
$var wire 1 d Div0|auto_generated|divider|divider|add_sub_7_result_int[7]~11_cout $end
$var wire 1 e Div0|auto_generated|divider|divider|add_sub_7_result_int[8]~12_combout $end
$var wire 1 f Add0~1 $end
$var wire 1 g Add0~3 $end
$var wire 1 h Add0~4_combout $end
$var wire 1 i Mult0|mult_core|_~1_combout $end
$var wire 1 j Mult0|mult_core|romout[0][6]~0_combout $end
$var wire 1 k Add0~5 $end
$var wire 1 l Add0~7 $end
$var wire 1 m Add0~9 $end
$var wire 1 n Add0~10_combout $end
$var wire 1 o Mult0|mult_core|_~0_combout $end
$var wire 1 p Add0~11 $end
$var wire 1 q Add0~13 $end
$var wire 1 r Add0~15 $end
$var wire 1 s Add0~16_combout $end
$var wire 1 t Add0~14_combout $end
$var wire 1 u Div1|auto_generated|divider|divider|add_sub_23_result_int[1]~1 $end
$var wire 1 v Div1|auto_generated|divider|divider|add_sub_23_result_int[2]~2_combout $end
$var wire 1 w Add0~17 $end
$var wire 1 x Add0~18_combout $end
$var wire 1 y Div1|auto_generated|divider|divider|add_sub_23_result_int[2]~3 $end
$var wire 1 z Div1|auto_generated|divider|divider|add_sub_23_result_int[3]~5 $end
$var wire 1 { Div1|auto_generated|divider|divider|add_sub_23_result_int[4]~7_cout $end
$var wire 1 | Div1|auto_generated|divider|divider|add_sub_23_result_int[5]~8_combout $end
$var wire 1 } Div1|auto_generated|divider|divider|StageOut[118]~76_combout $end
$var wire 1 ~ Div1|auto_generated|divider|divider|add_sub_23_result_int[3]~4_combout $end
$var wire 1 !! Div1|auto_generated|divider|divider|StageOut[118]~77_combout $end
$var wire 1 "! Div1|auto_generated|divider|divider|StageOut[117]~78_combout $end
$var wire 1 #! Div1|auto_generated|divider|divider|StageOut[117]~79_combout $end
$var wire 1 $! Div1|auto_generated|divider|divider|StageOut[116]~80_combout $end
$var wire 1 %! Div1|auto_generated|divider|divider|add_sub_23_result_int[1]~0_combout $end
$var wire 1 &! Div1|auto_generated|divider|divider|StageOut[116]~81_combout $end
$var wire 1 '! Add0~12_combout $end
$var wire 1 (! Div1|auto_generated|divider|divider|StageOut[115]~82_combout $end
$var wire 1 )! Div1|auto_generated|divider|divider|StageOut[115]~83_combout $end
$var wire 1 *! Div1|auto_generated|divider|divider|add_sub_24_result_int[1]~1 $end
$var wire 1 +! Div1|auto_generated|divider|divider|add_sub_24_result_int[2]~3 $end
$var wire 1 ,! Div1|auto_generated|divider|divider|add_sub_24_result_int[3]~5 $end
$var wire 1 -! Div1|auto_generated|divider|divider|add_sub_24_result_int[4]~7_cout $end
$var wire 1 .! Div1|auto_generated|divider|divider|add_sub_24_result_int[5]~8_combout $end
$var wire 1 /! Div1|auto_generated|divider|divider|StageOut[123]~132_combout $end
$var wire 1 0! Div1|auto_generated|divider|divider|add_sub_24_result_int[3]~4_combout $end
$var wire 1 1! Div1|auto_generated|divider|divider|StageOut[123]~84_combout $end
$var wire 1 2! Div1|auto_generated|divider|divider|StageOut[122]~133_combout $end
$var wire 1 3! Div1|auto_generated|divider|divider|add_sub_24_result_int[2]~2_combout $end
$var wire 1 4! Div1|auto_generated|divider|divider|StageOut[122]~85_combout $end
$var wire 1 5! Div1|auto_generated|divider|divider|StageOut[121]~86_combout $end
$var wire 1 6! Div1|auto_generated|divider|divider|add_sub_24_result_int[1]~0_combout $end
$var wire 1 7! Div1|auto_generated|divider|divider|StageOut[121]~87_combout $end
$var wire 1 8! Div1|auto_generated|divider|divider|StageOut[120]~88_combout $end
$var wire 1 9! Div1|auto_generated|divider|divider|StageOut[120]~89_combout $end
$var wire 1 :! Div1|auto_generated|divider|divider|add_sub_25_result_int[1]~1 $end
$var wire 1 ;! Div1|auto_generated|divider|divider|add_sub_25_result_int[2]~3 $end
$var wire 1 <! Div1|auto_generated|divider|divider|add_sub_25_result_int[3]~5 $end
$var wire 1 =! Div1|auto_generated|divider|divider|add_sub_25_result_int[4]~7_cout $end
$var wire 1 >! Div1|auto_generated|divider|divider|add_sub_25_result_int[5]~8_combout $end
$var wire 1 ?! Div1|auto_generated|divider|divider|StageOut[126]~92_combout $end
$var wire 1 @! Div1|auto_generated|divider|divider|add_sub_25_result_int[1]~0_combout $end
$var wire 1 A! Div1|auto_generated|divider|divider|StageOut[126]~93_combout $end
$var wire 1 B! Add0~8_combout $end
$var wire 1 C! Div1|auto_generated|divider|divider|StageOut[125]~94_combout $end
$var wire 1 D! Div1|auto_generated|divider|divider|StageOut[125]~95_combout $end
$var wire 1 E! Div1|auto_generated|divider|divider|add_sub_26_result_int[1]~1 $end
$var wire 1 F! Div1|auto_generated|divider|divider|add_sub_26_result_int[2]~2_combout $end
$var wire 1 G! Div1|auto_generated|divider|divider|StageOut[128]~126_combout $end
$var wire 1 H! Div1|auto_generated|divider|divider|add_sub_25_result_int[3]~4_combout $end
$var wire 1 I! Div1|auto_generated|divider|divider|StageOut[128]~90_combout $end
$var wire 1 J! Div1|auto_generated|divider|divider|StageOut[127]~134_combout $end
$var wire 1 K! Div1|auto_generated|divider|divider|add_sub_25_result_int[2]~2_combout $end
$var wire 1 L! Div1|auto_generated|divider|divider|StageOut[127]~91_combout $end
$var wire 1 M! Div1|auto_generated|divider|divider|add_sub_26_result_int[2]~3 $end
$var wire 1 N! Div1|auto_generated|divider|divider|add_sub_26_result_int[3]~5 $end
$var wire 1 O! Div1|auto_generated|divider|divider|add_sub_26_result_int[4]~7_cout $end
$var wire 1 P! Div1|auto_generated|divider|divider|add_sub_26_result_int[5]~8_combout $end
$var wire 1 Q! Div1|auto_generated|divider|divider|StageOut[133]~127_combout $end
$var wire 1 R! Div1|auto_generated|divider|divider|add_sub_26_result_int[3]~4_combout $end
$var wire 1 S! Div1|auto_generated|divider|divider|StageOut[133]~96_combout $end
$var wire 1 T! Div1|auto_generated|divider|divider|StageOut[132]~135_combout $end
$var wire 1 U! Div1|auto_generated|divider|divider|StageOut[132]~97_combout $end
$var wire 1 V! Div1|auto_generated|divider|divider|StageOut[131]~98_combout $end
$var wire 1 W! Div1|auto_generated|divider|divider|add_sub_26_result_int[1]~0_combout $end
$var wire 1 X! Div1|auto_generated|divider|divider|StageOut[131]~99_combout $end
$var wire 1 Y! Add0~6_combout $end
$var wire 1 Z! Div1|auto_generated|divider|divider|StageOut[130]~100_combout $end
$var wire 1 [! Div1|auto_generated|divider|divider|StageOut[130]~101_combout $end
$var wire 1 \! Div1|auto_generated|divider|divider|add_sub_27_result_int[1]~1 $end
$var wire 1 ]! Div1|auto_generated|divider|divider|add_sub_27_result_int[2]~3 $end
$var wire 1 ^! Div1|auto_generated|divider|divider|add_sub_27_result_int[3]~5 $end
$var wire 1 _! Div1|auto_generated|divider|divider|add_sub_27_result_int[4]~7_cout $end
$var wire 1 `! Div1|auto_generated|divider|divider|add_sub_27_result_int[5]~8_combout $end
$var wire 1 a! Div1|auto_generated|divider|divider|StageOut[138]~128_combout $end
$var wire 1 b! Div1|auto_generated|divider|divider|add_sub_27_result_int[3]~4_combout $end
$var wire 1 c! Div1|auto_generated|divider|divider|StageOut[138]~102_combout $end
$var wire 1 d! Div1|auto_generated|divider|divider|StageOut[137]~136_combout $end
$var wire 1 e! Div1|auto_generated|divider|divider|add_sub_27_result_int[2]~2_combout $end
$var wire 1 f! Div1|auto_generated|divider|divider|StageOut[137]~103_combout $end
$var wire 1 g! Div1|auto_generated|divider|divider|StageOut[136]~104_combout $end
$var wire 1 h! Div1|auto_generated|divider|divider|add_sub_27_result_int[1]~0_combout $end
$var wire 1 i! Div1|auto_generated|divider|divider|StageOut[136]~105_combout $end
$var wire 1 j! Div1|auto_generated|divider|divider|StageOut[135]~106_combout $end
$var wire 1 k! Div1|auto_generated|divider|divider|StageOut[135]~107_combout $end
$var wire 1 l! Div1|auto_generated|divider|divider|add_sub_28_result_int[1]~1 $end
$var wire 1 m! Div1|auto_generated|divider|divider|add_sub_28_result_int[2]~3 $end
$var wire 1 n! Div1|auto_generated|divider|divider|add_sub_28_result_int[3]~5 $end
$var wire 1 o! Div1|auto_generated|divider|divider|add_sub_28_result_int[4]~7_cout $end
$var wire 1 p! Div1|auto_generated|divider|divider|add_sub_28_result_int[5]~8_combout $end
$var wire 1 q! Div1|auto_generated|divider|divider|StageOut[141]~110_combout $end
$var wire 1 r! Div1|auto_generated|divider|divider|add_sub_28_result_int[1]~0_combout $end
$var wire 1 s! Div1|auto_generated|divider|divider|StageOut[141]~111_combout $end
$var wire 1 t! Add0~2_combout $end
$var wire 1 u! Div1|auto_generated|divider|divider|StageOut[140]~112_combout $end
$var wire 1 v! Div1|auto_generated|divider|divider|StageOut[140]~113_combout $end
$var wire 1 w! Div1|auto_generated|divider|divider|add_sub_29_result_int[1]~1 $end
$var wire 1 x! Div1|auto_generated|divider|divider|add_sub_29_result_int[2]~2_combout $end
$var wire 1 y! Div1|auto_generated|divider|divider|StageOut[143]~129_combout $end
$var wire 1 z! Div1|auto_generated|divider|divider|add_sub_28_result_int[3]~4_combout $end
$var wire 1 {! Div1|auto_generated|divider|divider|StageOut[143]~108_combout $end
$var wire 1 |! Div1|auto_generated|divider|divider|StageOut[142]~137_combout $end
$var wire 1 }! Div1|auto_generated|divider|divider|add_sub_28_result_int[2]~2_combout $end
$var wire 1 ~! Div1|auto_generated|divider|divider|StageOut[142]~109_combout $end
$var wire 1 !" Div1|auto_generated|divider|divider|add_sub_29_result_int[2]~3 $end
$var wire 1 "" Div1|auto_generated|divider|divider|add_sub_29_result_int[3]~5 $end
$var wire 1 #" Div1|auto_generated|divider|divider|add_sub_29_result_int[4]~7_cout $end
$var wire 1 $" Div1|auto_generated|divider|divider|add_sub_29_result_int[5]~8_combout $end
$var wire 1 %" Div1|auto_generated|divider|divider|StageOut[148]~130_combout $end
$var wire 1 &" Div1|auto_generated|divider|divider|add_sub_29_result_int[3]~4_combout $end
$var wire 1 '" Div1|auto_generated|divider|divider|StageOut[148]~114_combout $end
$var wire 1 (" Div1|auto_generated|divider|divider|StageOut[147]~138_combout $end
$var wire 1 )" Div1|auto_generated|divider|divider|StageOut[147]~115_combout $end
$var wire 1 *" Div1|auto_generated|divider|divider|StageOut[146]~116_combout $end
$var wire 1 +" Div1|auto_generated|divider|divider|add_sub_29_result_int[1]~0_combout $end
$var wire 1 ," Div1|auto_generated|divider|divider|StageOut[146]~117_combout $end
$var wire 1 -" Add0~0_combout $end
$var wire 1 ." Div1|auto_generated|divider|divider|StageOut[145]~118_combout $end
$var wire 1 /" Div1|auto_generated|divider|divider|StageOut[145]~119_combout $end
$var wire 1 0" Div1|auto_generated|divider|divider|add_sub_30_result_int[1]~1 $end
$var wire 1 1" Div1|auto_generated|divider|divider|add_sub_30_result_int[2]~3 $end
$var wire 1 2" Div1|auto_generated|divider|divider|add_sub_30_result_int[3]~5 $end
$var wire 1 3" Div1|auto_generated|divider|divider|add_sub_30_result_int[4]~7_cout $end
$var wire 1 4" Div1|auto_generated|divider|divider|add_sub_30_result_int[5]~8_combout $end
$var wire 1 5" Div1|auto_generated|divider|divider|StageOut[153]~131_combout $end
$var wire 1 6" Div1|auto_generated|divider|divider|add_sub_30_result_int[3]~4_combout $end
$var wire 1 7" Div1|auto_generated|divider|divider|StageOut[153]~120_combout $end
$var wire 1 8" Div1|auto_generated|divider|divider|StageOut[152]~139_combout $end
$var wire 1 9" Div1|auto_generated|divider|divider|add_sub_30_result_int[2]~2_combout $end
$var wire 1 :" Div1|auto_generated|divider|divider|StageOut[152]~121_combout $end
$var wire 1 ;" Div1|auto_generated|divider|divider|StageOut[151]~122_combout $end
$var wire 1 <" Div1|auto_generated|divider|divider|add_sub_30_result_int[1]~0_combout $end
$var wire 1 =" Div1|auto_generated|divider|divider|StageOut[151]~123_combout $end
$var wire 1 >" Div1|auto_generated|divider|divider|StageOut[150]~124_combout $end
$var wire 1 ?" Div1|auto_generated|divider|divider|StageOut[150]~125_combout $end
$var wire 1 @" Div1|auto_generated|divider|divider|add_sub_31_result_int[1]~1_cout $end
$var wire 1 A" Div1|auto_generated|divider|divider|add_sub_31_result_int[2]~3_cout $end
$var wire 1 B" Div1|auto_generated|divider|divider|add_sub_31_result_int[3]~5_cout $end
$var wire 1 C" Div1|auto_generated|divider|divider|add_sub_31_result_int[4]~7_cout $end
$var wire 1 D" Div1|auto_generated|divider|divider|add_sub_31_result_int[5]~8_combout $end
$var wire 1 E" Add2~0_combout $end
$var wire 1 F" Add2~1 $end
$var wire 1 G" Add2~2_combout $end
$var wire 1 H" Add1~0_combout $end
$var wire 1 I" Add2~3 $end
$var wire 1 J" Add2~4_combout $end
$upscope $end
$upscope $end
$enddefinitions $end
#0
$dumpvars
b0 !
0%
0$
0#
0"
0)
0(
0'
0&
0-
0,
0+
0*
0.
1/
x0
11
12
13
04
05
06
07
08
09
0:
0;
0<
0=
0>
0?
0@
0A
0B
0C
0D
0E
0F
0G
1H
0I
1J
0K
1L
0M
0N
0O
0P
0Q
0R
0S
0T
1U
0V
0W
1X
0Y
0Z
1[
0\
0]
0^
0_
1`
0a
1b
0c
1d
1e
1f
0g
0h
0i
0j
1k
0l
1m
0n
1o
0p
1q
0r
0s
0t
0u
1v
1w
0x
1y
0z
1{
1|
0}
0~
0!!
0"!
0#!
0$!
1%!
0&!
0'!
0(!
0)!
0*!
1+!
0,!
1-!
1.!
0/!
00!
01!
02!
13!
04!
05!
16!
07!
08!
09!
0:!
1;!
0<!
1=!
1>!
0?!
1@!
0A!
0B!
0C!
0D!
0E!
1F!
0G!
0H!
0I!
0J!
1K!
0L!
1M!
0N!
1O!
1P!
0Q!
0R!
0S!
0T!
0U!
0V!
1W!
0X!
0Y!
0Z!
0[!
0\!
1]!
0^!
1_!
1`!
0a!
0b!
0c!
0d!
1e!
0f!
0g!
1h!
0i!
0j!
0k!
0l!
1m!
0n!
1o!
1p!
0q!
1r!
0s!
0t!
0u!
0v!
0w!
1x!
0y!
0z!
0{!
0|!
1}!
0~!
1!"
0""
1#"
1$"
0%"
0&"
0'"
0("
0)"
0*"
1+"
0,"
0-"
0."
0/"
00"
11"
02"
13"
14"
05"
06"
07"
08"
19"
0:"
0;"
1<"
0="
0>"
0?"
0@"
1A"
0B"
1C"
1D"
0E"
1F"
0G"
0H"
0I"
0J"
$end
#5000000
b1000 !
b1100 !
b1101 !
1M
1C
1@
14
1-"
1]
1t!
1Z
1G
0[
1%
1;"
1."
1_
18"
1*"
1u!
0`
0H
0X
1G"
1J"
17
16
0A"
10"
0<"
01"
09"
1w!
0+"
1a
1I
0U
1#
1"
1B"
19"
16"
0!"
0x!
1R
0C"
1&"
0D"
18
1H"
0F"
1)
1E"
15
1$
0J"
0G"
06
07
0"
0#
#10000000
b11101 !
b11111 !
b11011 !
b11010 !
1A
0M
1B
0@
04
1F"
1>"
0-"
0]
1h
1W
1X
0%
0E"
05
1@"
0;"
0."
0_
1("
1q!
1j!
0$
00"
1<"
15"
12"
06"
1x!
1l!
0r!
09"
03"
0m!
0}!
04"
1z!
19
1I"
1?"
0>"
1="
08"
05"
1(
1G"
16
0B"
1#
1J"
17
1C"
1"
1D"
08
0H"
0)
1E"
15
1$
0J"
07
0"
#15000000
b111010 !
b110010 !
b100010 !
b100110 !
b100111 !
1M
0C
0B
1F
1@
14
1-"
1]
0t!
0Z
0G
1[
0h
0W
0X
1Y!
1T
1U
1%
0I"
1."
1_
0*"
0u!
1`
1H
1X
0("
0q!
0j!
1|!
1g!
1Z!
0b
0G"
1J"
17
06
10"
0<"
0`
11"
19"
0w!
1+"
0a
0U
02"
16"
0x!
0l!
1r!
1%"
1""
0&"
1}!
1\!
0h!
0#
1"
0J"
07
01"
09"
0="
1a
06"
1:"
1!"
1x!
1b
17"
0}!
0#"
0]!
0e!
0"
16"
0:"
0b
07"
1B"
0""
1&"
0C"
0$"
1b!
1:
17"
0B"
1#"
1'"
0D"
1H"
1/"
0."
1,"
1)"
0%"
1'
18
1$"
0H"
19"
12"
06"
1)
0E"
1J"
17
05
0:
1H"
0/"
1."
0,"
0)"
0'"
1%"
1:"
07"
0'
0$
1"
0J"
07
09"
02"
16"
1B"
1C"
0"
1J"
17
0:"
17"
0C"
1D"
1"
08
0B"
0D"
0H"
0)
1E"
15
18
1H"
1)
1$
0E"
0J"
07
05
0$
0"
1J"
17
1"
#20000000
b100101 !
b110101 !
b110100 !
0A
1B
0@
04
0F"
0?"
1h
1W
0H
0X
0%
1E"
15
1I"
0@"
1("
1q!
1j!
1U
1$
1G"
16
1A"
12"
06"
0!"
0x!
1l!
0r!
1#
0J"
07
07"
1""
0&"
1}!
0"
1C"
0#"
1D"
0$"
1:
08
1F"
1/"
0."
1,"
0("
0%"
0)
1'
0E"
05
0I"
19"
02"
16"
0$
0G"
06
1:"
13"
17"
0#
1J"
17
14"
0C"
1"
09
1;"
0:"
18"
07"
0D"
0(
1G"
16
18
0A"
1C"
0H"
0F"
1)
1#
1E"
15
1B"
1D"
1$
0J"
0G"
06
07
08
0C"
1H"
1F"
0)
0"
0#
0E"
05
0D"
0$
1J"
1G"
16
17
18
0H"
0F"
1)
1"
1#
1E"
15
1$
0J"
0G"
06
07
0"
0#
#25000000
b1110100 !
b1010100 !
b1010000 !
b1000000 !
b1000001 !
0M
0B
0F
1E
1@
14
0-"
0]
0h
0W
1H
1X
0Y!
0T
0U
1B!
1Q
0J
0R
1%
1I"
0;"
0/"
0_
0q!
0j!
0I
1U
0|!
0g!
0Z!
1b
1d!
1V!
1C!
1c
1O
1G"
16
1A"
00"
1<"
1`
1!"
1x!
0l!
1r!
1J
1R
0""
1&"
0}!
0\!
1h!
0c
1y!
1n!
0z!
1e!
1E!
0W!
0d
1#
1J"
17
0B"
09"
0a
0&"
15"
1)"
1m!
1}!
0O
1'"
0e!
1d
0o!
0M!
0F!
0e
1"
1<
0'"
12"
06"
0n!
1z!
03"
1e
0p!
1R!
1l
1Y!
1j
0f
1-"
1-
1;
0<
1o!
1{!
04"
0l
0Y!
0j
1f
0-"
1~!
0y!
1s!
0m
1g!
1Z!
1g
1t!
0I"
1;"
1/"
0-
1&
0G"
06
19
1p!
1I"
1="
0;"
08"
05"
1m
0g!
0Z!
0g
0t!
0/"
1&"
0!"
0x!
1p
1n
0m!
0}!
1\!
0h!
0k
1h
1v!
0A"
10"
0<"
1(
0#
0;
0~!
0{!
1y!
0v!
0s!
1q!
1C"
0p
0n
1m!
1}!
0\!
1h!
1k
0h
00"
1<"
1'"
1""
0&"
0)"
0q
1'!
1T!
1?!
18!
1n!
0z!
1e!
1l
1Y!
1j!
1w!
0+"
19"
0="
0&
0""
1&"
0w!
1+"
1x!
1D"
1q
0'!
0T!
0?!
08!
0n!
1z!
0e!
1|!
0l
0Y!
0q!
0j!
09"
1="
0'"
02"
16"
1r
1t
1J!
15!
1(!
1a!
1^!
0b!
1F!
1:!
0@!
0o!
0B!
1g!
1Z!
1l!
0r!
0,"
1:"
1A"
08
1'"
1!"
1,"
1)"
1H"
1F"
0r
0t
0J!
05!
0(!
0a!
0^!
1b!
0F!
0:!
1@!
1""
0&"
1B!
0|!
0g!
0Z!
0l!
1r!
0:"
0A"
13"
17"
0w
1s
12!
1$!
1u
0%!
1Q!
1N!
0R!
0;!
1*!
06!
0_!
0p!
0d!
0V!
0C!
0m!
1\!
0h!
11"
19"
0)
0E"
05
1;
03"
0""
01"
09"
1w
0s
02!
0$!
0u
1%!
0Q!
0N!
1R!
1;!
0*!
16!
1o!
0'"
1d!
1V!
1C!
1m!
0\!
1h!
1s!
14"
0C"
1x
1/!
1"!
0y
1G!
1<!
0+!
0O!
0`!
1~!
1{!
0y!
0E!
1W!
1:"
1&
0$
0J"
1G"
16
07
09
04"
12"
06"
0:"
0x
0/!
0"!
1y
0G!
0<!
1+!
1_!
1p!
13"
1E!
0W!
1i!
0!"
0x!
0I"
0="
18"
07"
15"
0D"
1}
1z
0=!
1,!
0P!
0d!
1c!
1&"
1M!
1F!
1B"
0(
0"
1#
0G"
06
18
0;
19
1I"
1="
08"
05"
03"
0}
0z
1=!
0,!
1O!
1`!
0~!
1|!
0{!
0s!
14"
0M!
0F!
0m!
0}!
1""
0&"
0)"
1A"
0H"
0F"
0-!
0{
0>!
0V!
1U!
1S!
0z!
0o!
1'"
0R!
1(
0&
1)
0#
1G"
1J"
1E"
15
17
16
09
0A"
0B"
04"
1-!
1{
1>!
1P!
0|!
0i!
0c!
1!"
1x!
0="
18"
1R!
0U!
1z!
0'"
02"
16"
0.!
0|
1L!
1D!
0C!
1A!
1]!
1e!
1^!
0b!
0_!
0p!
0S!
0(
1#
1"
1$
1;
19
1B"
1C"
1="
08"
17"
1.!
1|
0L!
1J!
1G!
0D!
1C!
0A!
1d!
1V!
0""
1m!
1}!
1o!
1)"
1A"
0^!
1{!
13"
17!
14!
1&!
1#!
1N!
0R!
1F!
0`!
1s!
1(
1&
0G"
06
0C"
1D"
0A"
0B"
0J!
0G!
07!
04!
0&!
0#!
1Q!
0O!
0F!
0]!
0e!
1~!
1p!
12"
06"
1_!
14"
0;!
0K!
1H!
0+!
03!
10!
1i!
1f!
0d!
0!"
0x!
0#
09
0;
08
0D"
1H"
1F"
0Q!
0N!
1R!
1;!
1K!
1+!
13!
0_!
0P!
1b!
0f!
1""
0~!
1|!
0{!
0s!
03"
07"
1`!
0="
18"
0m!
0}!
0)"
0)
0&
0(
0E"
1G"
16
05
18
0H"
0F"
0I"
1_!
1O!
1S!
0H!
00!
0`!
0V!
1!"
1x!
04"
1C"
0|!
0i!
1A"
1B"
02"
16"
1)
0$
1#
1E"
0J"
0G"
06
07
15
19
1I"
1`!
1P!
0_!
1|!
1i!
1c!
1]!
1e!
0""
1)"
1="
08"
17"
1D"
1m!
1}!
0B"
0C"
13"
1(
1$
0"
0#
08
0|!
0i!
1d!
0c!
1V!
0S!
0`!
1&"
0m!
0}!
0o!
0b!
1#"
12"
06"
0A"
1H"
1F"
0z!
0D"
14"
0)
1J"
0E"
05
17
09
18
0&"
1m!
1}!
1y!
1n!
1o!
0]!
0e!
1_!
1|!
1i!
1f!
0d!
1'"
0p!
1$"
03"
07"
0I"
0H"
0F"
0="
18"
15"
1)
0(
1"
0$
0J"
1E"
15
07
0:
1;
0'"
0n!
1z!
1%"
1~!
0#"
0o!
1p!
1b!
0y!
0f!
1`!
1&"
0m!
0}!
1("
0|!
1s!
1H"
08"
05"
0,"
0)"
04"
1I"
1A"
1B"
1&
0'
0"
1$
1G"
16
19
0;
1o!
0$"
0p!
0("
0%"
0~!
0s!
1#"
0i!
1d!
0!"
0x!
0B"
11"
19"
1="
0&
1(
1#
0G"
06
1;
1:
1p!
0H"
1,"
1'"
1{!
1s!
02"
1!"
1x!
1$"
1m!
1}!
1n!
0z!
1C"
1:"
0A"
1'
1&
0#
0:
0;
0{!
1y!
0s!
01"
09"
0#"
0!"
0x!
0&"
1H"
0,"
0'"
0n!
1z!
0o!
1D"
1B"
0&
0'
1J"
17
08
1!"
1x!
16"
0:"
0$"
1&"
11"
19"
13"
1o!
0p!
0H"
1F"
0C"
0)
1"
0J"
0E"
05
07
1;
1:
0&"
1)"
17"
0B"
1H"
1,"
1'"
06"
1:"
14"
1p!
1~!
1{!
0y!
1s!
0D"
1'
1&
0"
0$
1J"
1G"
16
17
18
0;
09
0'"
16"
01"
09"
03"
07"
1B"
0I"
0="
0:"
18"
15"
0~!
0{!
1y!
0s!
1&"
0!"
0x!
0H"
0F"
0(
0&
1)
1"
1#
0J"
0G"
1E"
15
06
07
13"
12"
06"
04"
1A"
1!"
1x!
1'"
05"
0)"
1I"
0"
0#
1$
1G"
16
19
14"
03"
1="
08"
0B"
0&"
1)"
02"
16"
1(
1#
0G"
1J"
17
06
09
0="
18"
15"
04"
0A"
1C"
0'"
12"
06"
0(
0#
1"
1G"
16
19
1A"
1B"
0C"
1="
08"
05"
1D"
1(
1#
0G"
06
08
0B"
0D"
0A"
1H"
1F"
0)
0#
0E"
05
18
1C"
0H"
0F"
1)
0$
1E"
0J"
1G"
16
07
15
1D"
1$
0"
1#
1J"
0G"
06
17
08
1H"
1F"
0)
1"
0#
0E"
05
0$
0J"
1G"
16
07
0"
1#
#30000000
b1001001 !
b1001011 !
b1001111 !
b1001110 !
1A
1M
1C
0@
04
1?"
1-"
1]
1t!
1Z
1G
0[
0%
1E"
15
1@"
0I"
1/"
1_
1u!
0`
0H
0X
1$
0G"
1J"
17
06
10"
0<"
1w!
0+"
1a
1I
0U
0#
1"
0J"
07
19"
0="
0!"
0x!
0,"
0J
0R
0"
1:"
1&"
0)"
09"
1O
1B"
1'"
02"
16"
0:"
0C"
17"
0B"
0D"
18
0H"
1)
0E"
05
0$
1J"
17
1"
#35000000
b1011110 !
b1011010 !
b1011011 !
0M
1B
1@
14
0-"
0]
1h
1W
1X
1%
1I"
0/"
0_
1q!
1j!
1G"
16
00"
1<"
1x!
1l!
0r!
1#
0J"
07
11"
19"
1="
1)"
0m!
0}!
0"
1:"
1n!
0z!
1B"
0o!
0p!
1;
0y!
1v!
0u!
0q!
1&
1#"
0x!
1$"
0)"
0:
1H"
1*"
0'"
06"
0'
01"
09"
13"
07"
1J"
17
16"
0:"
14"
1"
09
0B"
0I"
0?"
1>"
0="
18"
0(
0G"
06
1C"
1B"
0#
0J"
07
1D"
0C"
0"
08
0H"
0D"
0)
1E"
15
18
1H"
1)
1$
1J"
0E"
05
17
1"
0$
0J"
07
0"
