Projet_HDL/Comparateur/simulation/qsim/Comparateur.msim.vcd
$comment
	File created using the following command:
		vcd file Comparateur.msim.vcd -direction
$end
$date
	Thu Sep 23 17:25:05 2021
$end
$version
	ModelSim Version 10.5b
$end
$timescale
	1ps
$end

$scope module ComparateurTL_vlg_vec_tst $end
$var reg 8 ! Comp [7:0] $end
$var wire 1 " Out $end

$scope module i1 $end
$var wire 1 # gnd $end
$var wire 1 $ vcc $end
$var wire 1 % unknown $end
$var tri1 1 & devclrn $end
$var tri1 1 ' devpor $end
$var tri1 1 ( devoe $end
$var wire 1 ) Out~output_o $end
$var wire 1 * Comp[0]~input_o $end
$var wire 1 + Comp[1]~input_o $end
$var wire 1 , Comp[2]~input_o $end
$var wire 1 - Comp[3]~input_o $end
$var wire 1 . LessThan0~0_combout $end
$var wire 1 / Comp[4]~input_o $end
$var wire 1 0 Comp[5]~input_o $end
$var wire 1 1 Comp[6]~input_o $end
$var wire 1 2 Comp[7]~input_o $end
$var wire 1 3 LessThan0~1_combout $end
$var wire 1 4 LessThan0~2_combout $end
$upscope $end
$upscope $end
$enddefinitions $end
#0
$dumpvars
b0 !
0"
0#
1$
x%
1&
1'
1(
0)
0*
0+
0,
0-
1.
0/
00
01
02
13
14
$end
#5000000
b1 !
1*
#10000000
b11 !
b10 !
0*
1+
#15000000
b11 !
1*
#20000000
b111 !
b101 !
b100 !
0*
0+
1,
#25000000
b101 !
1*
#30000000
b111 !
b110 !
0*
1+
#35000000
b111 !
1*
#40000000
b1111 !
b1011 !
b1001 !
b1000 !
0*
0+
0,
1-
#45000000
b1001 !
1*
#50000000
b1011 !
b1010 !
0*
1+
#55000000
b1011 !
1*
#60000000
b1111 !
b1101 !
b1100 !
0*
0+
1,
#65000000
b1101 !
1*
#70000000
b1111 !
b1110 !
0*
1+
#75000000
b1111 !
1*
0.
04
1)
1"
#80000000
b11111 !
b10111 !
b10011 !
b10001 !
b10000 !
0*
0+
0,
0-
1/
1.
03
#85000000
b10001 !
1*
#90000000
b10011 !
b10010 !
0*
1+
#95000000
b10011 !
1*
