Projet_HDL/DiviseurFreq/simulation/qsim/FreqDivider.msim.vcd
$comment
	File created using the following command:
		vcd file FreqDivider.msim.vcd -direction
$end
$date
	Fri Sep 17 14:51:41 2021
$end
$version
	ModelSim Version 10.5b
$end
$timescale
	1ps
$end

$scope module FreqDividerTL_vlg_vec_tst $end
$var reg 1 ! clkIn $end
$var wire 1 " clkOut $end

$scope module i1 $end
$var wire 1 # gnd $end
$var wire 1 $ vcc $end
$var wire 1 % unknown $end
$var tri1 1 & devclrn $end
$var tri1 1 ' devpor $end
$var tri1 1 ( devoe $end
$var wire 1 ) clkOut~output_o $end
$var wire 1 * clkIn~input_o $end
$var wire 1 + cnt[0]~16_combout $end
$var wire 1 , cnt[4]~25 $end
$var wire 1 - cnt[5]~26_combout $end
$var wire 1 . cnt[5]~27 $end
$var wire 1 / cnt[6]~28_combout $end
$var wire 1 0 cnt[6]~29 $end
$var wire 1 1 cnt[7]~30_combout $end
$var wire 1 2 cnt[7]~31 $end
$var wire 1 3 cnt[8]~32_combout $end
$var wire 1 4 cnt[8]~33 $end
$var wire 1 5 cnt[9]~34_combout $end
$var wire 1 6 cnt[9]~35 $end
$var wire 1 7 cnt[10]~36_combout $end
$var wire 1 8 cnt[10]~37 $end
$var wire 1 9 cnt[11]~38_combout $end
$var wire 1 : LessThan1~1_combout $end
$var wire 1 ; cnt[11]~39 $end
$var wire 1 < cnt[12]~40_combout $end
$var wire 1 = cnt[12]~41 $end
$var wire 1 > cnt[13]~42_combout $end
$var wire 1 ? cnt[13]~43 $end
$var wire 1 @ cnt[14]~44_combout $end
$var wire 1 A cnt[14]~45 $end
$var wire 1 B cnt[15]~46_combout $end
$var wire 1 C LessThan1~2_combout $end
$var wire 1 D LessThan0~0_combout $end
$var wire 1 E LessThan0~1_combout $end
$var wire 1 F cnt[0]~17 $end
$var wire 1 G cnt[1]~18_combout $end
$var wire 1 H cnt[1]~19 $end
$var wire 1 I cnt[2]~20_combout $end
$var wire 1 J cnt[2]~21 $end
$var wire 1 K cnt[3]~22_combout $end
$var wire 1 L cnt[3]~23 $end
$var wire 1 M cnt[4]~24_combout $end
$var wire 1 N LessThan1~0_combout $end
$var wire 1 O LessThan1~3_combout $end
$var wire 1 P LessThan1~4_combout $end
$var wire 1 Q clkOut~reg0_q $end
$var wire 1 R cnt [15] $end
$var wire 1 S cnt [14] $end
$var wire 1 T cnt [13] $end
$var wire 1 U cnt [12] $end
$var wire 1 V cnt [11] $end
$var wire 1 W cnt [10] $end
$var wire 1 X cnt [9] $end
$var wire 1 Y cnt [8] $end
$var wire 1 Z cnt [7] $end
$var wire 1 [ cnt [6] $end
$var wire 1 \ cnt [5] $end
$var wire 1 ] cnt [4] $end
$var wire 1 ^ cnt [3] $end
$var wire 1 _ cnt [2] $end
$var wire 1 ` cnt [1] $end
$var wire 1 a cnt [0] $end
$upscope $end
$upscope $end
$enddefinitions $end
#0
$dumpvars
0!
0"
0#
1$
x%
1&
1'
1(
0)
0*
1+
0,
0-
1.
0/
00
01
12
03
04
05
16
07
08
09
1:
1;
0<
0=
0>
1?
0@
0A
0B
1C
1D
0E
0F
0G
1H
0I
0J
0K
1L
0M
1N
1O
1P
0Q
0a
0`
0_
0^
0]
0\
0[
0Z
0Y
0X
0W
0V
0U
0T
0S
0R
$end
#500000
1!
1*
#1000000
0!
0*
1a
1Q
1)
1F
1"
0+
1G
#1500000
1!
1*
#2000000
0!
0*
0a
1`
0F
0H
1+
0G
1H
1G
1I
0I
#2500000
1!
1*
#3000000
0!
0*
1a
1F
0+
0H
0G
1I
#3500000
1!
1*
#4000000
0!
0*
0a
0`
1_
0F
1H
1J
1+
1G
0I
0J
0G
1I
1K
0K
#4500000
1!
1*
#5000000
0!
0*
1a
0O
1F
0+
0P
1G
#5500000
1!
1*
#6000000
0!
0*
0a
1`
0Q
0)
0F
0H
0"
1+
0G
1H
1J
1G
0I
0J
1I
1K
0K
#6500000
1!
1*
#7000000
0!
0*
1a
1F
0+
0H
0G
1J
0I
1K
#7500000
1!
1*
#8000000
0!
0*
0a
0`
0_
1^
0F
1H
0J
0L
1+
1G
1I
0K
1L
0G
0I
1K
1M
0M
#8500000
1!
1*
#9000000
0!
0*
1a
0D
1F
0+
1E
1G
#9500000
1!
1*
#10000000
0!
0*
0a
0^
1O
1D
0F
1+
0K
0E
1P
0G
#10500000
1!
1*
#11000000
0!
0*
1a
1Q
1)
1F
1"
0+
1G
#11500000
1!
1*
#12000000
0!
0*
0a
1`
0F
0H
1+
0G
1H
1G
1I
0I
#12500000
1!
1*
#13000000
0!
0*
1a
1F
0+
0H
0G
1I
#13500000
1!
1*
#14000000
0!
0*
0a
0`
1_
0F
1H
1J
1+
1G
0I
0J
0G
1I
1K
0K
#14500000
1!
1*
#15000000
0!
0*
1a
0O
1F
0+
0P
1G
#15500000
1!
1*
#16000000
0!
0*
0a
1`
0Q
0)
0F
0H
0"
1+
0G
1H
1J
1G
0I
0J
1I
1K
0K
#16500000
1!
1*
#17000000
0!
0*
1a
1F
0+
0H
0G
1J
0I
1K
#17500000
1!
1*
#18000000
0!
0*
0a
0`
0_
1^
0F
1H
0J
0L
1+
1G
1I
0K
1L
0G
0I
1K
1M
0M
#18500000
1!
1*
#19000000
0!
0*
1a
0D
1F
0+
1E
1G
#19500000
1!
1*
#20000000
0!
0*
0a
0^
1O
1D
0F
1+
0K
0E
1P
0G
#20500000
1!
1*
#21000000
0!
0*
1a
1Q
1)
1F
1"
0+
1G
#21500000
1!
1*
#22000000
0!
0*
0a
1`
0F
0H
1+
0G
1H
1G
1I
0I
#22500000
1!
1*
#23000000
0!
0*
1a
1F
0+
0H
0G
1I
#23500000
1!
1*
#24000000
0!
0*
0a
0`
1_
0F
1H
1J
1+
1G
0I
0J
0G
1I
1K
0K
#24500000
1!
1*
#25000000
0!
0*
1a
0O
1F
0+
0P
1G
#25500000
1!
1*
#26000000
0!
0*
0a
1`
0Q
0)
0F
0H
0"
1+
0G
1H
1J
1G
0I
0J
1I
1K
0K
#26500000
1!
1*
#27000000
0!
0*
1a
1F
0+
0H
0G
1J
0I
1K
#27500000
1!
1*
#28000000
0!
0*
0a
0`
0_
1^
0F
1H
0J
0L
1+
1G
1I
0K
1L
0G
0I
1K
1M
0M
#28500000
1!
1*
#29000000
0!
0*
1a
0D
1F
0+
1E
1G
#29500000
1!
1*
#30000000
0!
0*
0a
0^
1O
1D
0F
1+
0K
0E
1P
0G
#30500000
1!
1*
#31000000
0!
0*
1a
1Q
1)
1F
1"
0+
1G
#31500000
1!
1*
#32000000
0!
0*
0a
1`
0F
0H
1+
0G
1H
1G
1I
0I
#32500000
1!
1*
#33000000
0!
0*
1a
1F
0+
0H
0G
1I
#33500000
1!
1*
#34000000
0!
0*
0a
0`
1_
0F
1H
1J
1+
1G
0I
0J
0G
1I
1K
0K
#34500000
1!
1*
#35000000
0!
0*
1a
0O
1F
0+
0P
1G
#35500000
1!
1*
#36000000
0!
0*
0a
1`
0Q
0)
0F
0H
0"
1+
0G
1H
1J
1G
0I
0J
1I
1K
0K
#36500000
1!
1*
#37000000
0!
0*
1a
1F
0+
0H
0G
1J
0I
1K
#37500000
1!
1*
#38000000
0!
0*
0a
0`
0_
1^
0F
1H
0J
0L
1+
1G
1I
0K
1L
0G
0I
1K
1M
0M
#38500000
1!
1*
#39000000
0!
0*
1a
0D
1F
0+
1E
1G
#39500000
1!
1*
#40000000
0!
0*
0a
0^
1O
1D
0F
1+
0K
0E
1P
0G
#40500000
1!
1*
#41000000
0!
0*
1a
1Q
1)
1F
1"
0+
1G
#41500000
1!
1*
#42000000
0!
0*
0a
1`
0F
0H
1+
0G
1H
1G
1I
0I
#42500000
1!
1*
#43000000
0!
0*
1a
1F
0+
0H
0G
1I
#43500000
1!
1*
#44000000
0!
0*
0a
0`
1_
0F
1H
1J
1+
1G
0I
0J
0G
1I
1K
0K
#44500000
1!
1*
#45000000
0!
0*
1a
0O
1F
0+
0P
1G
#45500000
1!
1*
#46000000
0!
0*
0a
1`
0Q
0)
0F
0H
0"
1+
0G
1H
1J
1G
0I
0J
1I
1K
0K
#46500000
1!
1*
#47000000
0!
0*
1a
1F
0+
0H
0G
1J
0I
1K
#47500000
1!
1*
#48000000
0!
0*
0a
0`
0_
1^
0F
1H
0J
0L
1+
1G
1I
0K
1L
0G
0I
1K
1M
0M
#48500000
1!
1*
#49000000
0!
0*
1a
0D
1F
0+
1E
1G
#49500000
1!
1*
#50000000
0!
0*
0a
0^
1O
1D
0F
1+
0K
0E
1P
0G
#50500000
1!
1*
#51000000
0!
0*
1a
1Q
1)
1F
1"
0+
1G
#51500000
1!
1*
#52000000
0!
0*
0a
1`
0F
0H
1+
0G
1H
1G
1I
0I
#52500000
1!
1*
#53000000
0!
0*
1a
1F
0+
0H
0G
1I
#53500000
1!
1*
#54000000
0!
0*
0a
0`
1_
0F
1H
1J
1+
1G
0I
0J
0G
1I
1K
0K
#54500000
1!
1*
#55000000
0!
0*
1a
0O
1F
0+
0P
1G
#55500000
1!
1*
#56000000
0!
0*
0a
1`
0Q
0)
0F
0H
0"
1+
0G
1H
1J
1G
0I
0J
1I
1K
0K
#56500000
1!
1*
#57000000
0!
0*
1a
1F
0+
0H
0G
1J
0I
1K
#57500000
1!
1*
#58000000
0!
0*
0a
0`
0_
1^
0F
1H
0J
0L
1+
1G
1I
0K
1L
0G
0I
1K
1M
0M
#58500000
1!
1*
#59000000
0!
0*
1a
0D
1F
0+
1E
1G
#59500000
1!
1*
#60000000
0!
0*
0a
0^
1O
1D
0F
1+
0K
0E
1P
0G
#60500000
1!
1*
#61000000
0!
0*
1a
1Q
1)
1F
1"
0+
1G
#61500000
1!
1*
#62000000
0!
0*
0a
1`
0F
0H
1+
0G
1H
1G
1I
0I
#62500000
1!
1*
#63000000
0!
0*
1a
1F
0+
0H
0G
1I
#63500000
1!
1*
#64000000
0!
0*
0a
0`
1_
0F
1H
1J
1+
1G
0I
0J
0G
1I
1K
0K
#64500000
1!
1*
#65000000
0!
0*
1a
0O
1F
0+
0P
1G
#65500000
1!
1*
#66000000
0!
0*
0a
1`
0Q
0)
0F
0H
0"
1+
0G
1H
1J
1G
0I
0J
1I
1K
0K
#66500000
1!
1*
#67000000
0!
0*
1a
1F
0+
0H
0G
1J
0I
1K
#67500000
1!
1*
#68000000
0!
0*
0a
0`
0_
1^
0F
1H
0J
0L
1+
1G
1I
0K
1L
0G
0I
1K
1M
0M
#68500000
1!
1*
#69000000
0!
0*
1a
0D
1F
0+
1E
1G
#69500000
1!
1*
#70000000
0!
0*
0a
0^
1O
1D
0F
1+
0K
0E
1P
0G
#70500000
1!
1*
#71000000
0!
0*
1a
1Q
1)
1F
1"
0+
1G
#71500000
1!
1*
#72000000
0!
0*
0a
1`
0F
0H
1+
0G
1H
1G
1I
0I
#72500000
1!
1*
#73000000
0!
0*
1a
1F
0+
0H
0G
1I
#73500000
1!
1*
#74000000
0!
0*
0a
0`
1_
0F
1H
1J
1+
1G
0I
0J
0G
1I
1K
0K
#74500000
1!
1*
#75000000
0!
0*
1a
0O
1F
0+
0P
1G
#75500000
1!
1*
#76000000
0!
0*
0a
1`
0Q
0)
0F
0H
0"
1+
0G
1H
1J
1G
0I
0J
1I
1K
0K
#76500000
1!
1*
#77000000
0!
0*
1a
1F
0+
0H
0G
1J
0I
1K
#77500000
1!
1*
#78000000
0!
0*
0a
0`
0_
1^
0F
1H
0J
0L
1+
1G
1I
0K
1L
0G
0I
1K
1M
0M
#78500000
1!
1*
#79000000
0!
0*
1a
0D
1F
0+
1E
1G
#79500000
1!
1*
#80000000
0!
0*
0a
0^
1O
1D
0F
1+
0K
0E
1P
0G
#80500000
1!
1*
#81000000
0!
0*
1a
1Q
1)
1F
1"
0+
1G
#81500000
1!
1*
#82000000
0!
0*
0a
1`
0F
0H
1+
0G
1H
1G
1I
0I
#82500000
1!
1*
#83000000
0!
0*
1a
1F
0+
0H
0G
1I
#83500000
1!
1*
#84000000
0!
0*
0a
0`
1_
0F
1H
1J
1+
1G
0I
0J
0G
1I
1K
0K
#84500000
1!
1*
#85000000
0!
0*
1a
0O
1F
0+
0P
1G
#85500000
1!
1*
#86000000
0!
0*
0a
1`
0Q
0)
0F
0H
0"
1+
0G
1H
1J
1G
0I
0J
1I
1K
0K
#86500000
1!
1*
#87000000
0!
0*
1a
1F
0+
0H
0G
1J
0I
1K
#87500000
1!
1*
#88000000
0!
0*
0a
0`
0_
1^
0F
1H
0J
0L
1+
1G
1I
0K
1L
0G
0I
1K
1M
0M
#88500000
1!
1*
#89000000
0!
0*
1a
0D
1F
0+
1E
1G
#89500000
1!
1*
#90000000
0!
0*
0a
0^
1O
1D
0F
1+
0K
0E
1P
0G
#90500000
1!
1*
#91000000
0!
0*
1a
1Q
1)
1F
1"
0+
1G
#91500000
1!
1*
#92000000
0!
0*
0a
1`
0F
0H
1+
0G
1H
1G
1I
0I
#92500000
1!
1*
#93000000
0!
0*
1a
1F
0+
0H
0G
1I
#93500000
1!
1*
#94000000
0!
0*
0a
0`
1_
0F
1H
1J
1+
1G
0I
0J
0G
1I
1K
0K
#94500000
1!
1*
#95000000
0!
0*
1a
0O
1F
0+
0P
1G
#95500000
1!
1*
#96000000
0!
0*
0a
1`
0Q
0)
0F
0H
0"
1+
0G
1H
1J
1G
0I
0J
1I
1K
0K
#96500000
1!
1*
#97000000
0!
0*
1a
1F
0+
0H
0G
1J
0I
1K
#97500000
1!
1*
#98000000
0!
0*
0a
0`
0_
1^
0F
1H
0J
0L
1+
1G
1I
0K
1L
0G
0I
1K
1M
0M
#98500000
1!
1*
#99000000
0!
0*
1a
0D
1F
0+
1E
1G
#99500000
1!
1*
