Projet_HDL/CptNBitsNat/simulation/qsim/CptNBitsNatTL.msim.vcd
$comment
	File created using the following command:
		vcd file CptNBitsNatTL.msim.vcd -direction
$end
$date
	Tue Sep 28 13:36:33 2021
$end
$version
	ModelSim Version 10.5b
$end
$timescale
	1ps
$end

$scope module CptNBitsNatTL_vlg_vec_tst $end
$var reg 1 ! Clk $end
$var reg 1 " nReset $end
$var reg 1 # nSet $end
$var wire 1 $ Q [3] $end
$var wire 1 % Q [2] $end
$var wire 1 & Q [1] $end
$var wire 1 ' Q [0] $end

$scope module i1 $end
$var wire 1 ( gnd $end
$var wire 1 ) vcc $end
$var wire 1 * unknown $end
$var tri1 1 + devclrn $end
$var tri1 1 , devpor $end
$var tri1 1 - devoe $end
$var wire 1 . Q[0]~output_o $end
$var wire 1 / Q[1]~output_o $end
$var wire 1 0 Q[2]~output_o $end
$var wire 1 1 Q[3]~output_o $end
$var wire 1 2 Clk~input_o $end
$var wire 1 3 nSet~input_o $end
$var wire 1 4 nReset~input_o $end
$var wire 1 5 Add0~0_combout $end
$var wire 1 6 Q~2_combout $end
$var wire 1 7 Q[1]~reg0_q $end
$var wire 1 8 Add0~1_combout $end
$var wire 1 9 Q~3_combout $end
$var wire 1 : Q[2]~reg0_q $end
$var wire 1 ; Add0~2_combout $end
$var wire 1 < Q~4_combout $end
$var wire 1 = Q[3]~reg0_q $end
$var wire 1 > Q[0]~0_combout $end
$var wire 1 ? Q~1_combout $end
$var wire 1 @ Q[0]~reg0_q $end
$upscope $end
$upscope $end
$enddefinitions $end
#0
$dumpvars
0!
1"
1#
0'
0&
0%
0$
0(
1)
x*
1+
1,
1-
0.
0/
00
01
02
13
14
05
06
07
08
09
0:
0;
0<
0=
1>
1?
0@
$end
#500000
1!
12
1@
1.
15
1'
0?
16
#1000000
0!
02
#1500000
1!
12
0@
17
1/
0.
0'
1&
1?
#2000000
0!
02
#2500000
1!
12
1@
1.
18
05
1'
0?
19
06
#3000000
0!
02
#3500000
1!
12
0@
1:
07
0/
10
0.
0'
1%
0&
1?
#4000000
0!
02
#4500000
1!
12
1@
1.
15
1'
0?
16
#5000000
0!
02
#5500000
1!
12
0@
17
1/
0.
0'
1&
1?
#6000000
0!
02
#6500000
1!
12
1@
1.
1;
08
05
1'
0?
1<
09
06
#7000000
0!
02
#7500000
1!
12
0@
1=
0:
07
0/
00
11
0.
0'
1$
0%
0&
1?
#8000000
0!
02
#8500000
1!
12
1@
1.
0>
15
1'
0?
0<
#9000000
0!
02
#9500000
1!
12
0@
0=
01
0.
1>
0;
05
0'
0$
1?
#10000000
0!
02
#10500000
1!
12
1@
1.
15
1'
0?
16
#11000000
0!
02
#11500000
1!
12
0@
17
1/
0.
0'
1&
1?
#12000000
0!
02
#12500000
1!
12
1@
1.
18
05
1'
0?
19
06
#13000000
0!
02
#13500000
1!
12
0@
1:
07
0/
10
0.
0'
1%
0&
1?
#14000000
0!
02
#14500000
1!
12
1@
1.
15
1'
0?
16
#15000000
0!
02
#15500000
1!
12
0@
17
1/
0.
0'
1&
1?
#16000000
0!
02
#16500000
1!
12
1@
1.
1;
08
05
1'
0?
1<
09
06
#17000000
0!
02
#17500000
1!
12
0@
1=
0:
07
0/
00
11
0.
0'
1$
0%
0&
1?
#18000000
0!
02
#18500000
1!
12
1@
1.
0>
15
1'
0?
0<
#19000000
0!
02
#19500000
1!
12
0@
0=
01
0.
1>
0;
05
0'
0$
1?
#20000000
0!
02
#20500000
1!
12
1@
1.
15
1'
0?
16
#21000000
0!
02
#21500000
1!
12
0@
17
1/
0.
0'
1&
1?
#22000000
0!
02
#22500000
1!
12
1@
1.
18
05
1'
0?
19
06
#23000000
0!
02
#23500000
1!
12
0@
1:
07
0/
10
0.
0'
1%
0&
1?
#24000000
0!
02
#24500000
1!
12
1@
1.
15
1'
0?
16
#25000000
0!
02
#25500000
1!
12
0@
17
1/
0.
0'
1&
1?
#26000000
0!
02
#26500000
1!
12
1@
1.
1;
08
05
1'
0?
1<
09
06
#27000000
0!
02
#27500000
1!
12
0@
1=
0:
07
0/
00
11
0.
0'
1$
0%
0&
1?
#28000000
0!
02
#28500000
1!
12
1@
1.
0>
15
1'
0?
0<
#29000000
0!
02
#29500000
1!
12
0@
0=
01
0.
1>
0;
05
0'
0$
1?
#30000000
0!
02
#30500000
1!
12
1@
1.
15
1'
0?
16
#31000000
0!
02
#31500000
1!
12
0@
17
1/
0.
0'
1&
1?
#32000000
0!
02
#32500000
1!
12
1@
1.
18
05
1'
0?
19
06
#33000000
0!
02
#33500000
1!
12
0@
1:
07
0/
10
0.
0'
1%
0&
1?
#34000000
0!
02
#34500000
1!
12
1@
1.
15
1'
0?
16
#35000000
0!
02
#35500000
1!
12
0@
17
1/
0.
0'
1&
1?
#36000000
0!
02
#36500000
1!
12
1@
1.
1;
08
05
1'
0?
1<
09
06
#37000000
0!
02
#37500000
1!
12
0@
1=
0:
07
0/
00
11
0.
0'
1$
0%
0&
1?
#38000000
0!
02
#38500000
1!
12
1@
1.
0>
15
1'
0?
0<
#39000000
0!
02
#39500000
1!
12
0@
0=
01
0.
1>
0;
05
0'
0$
1?
#40000000
0!
02
#40500000
1!
12
1@
1.
15
1'
0?
16
#41000000
0!
02
#41500000
1!
12
0@
17
1/
0.
0'
1&
1?
#42000000
0!
02
#42500000
1!
12
1@
1.
18
05
1'
0?
19
06
#43000000
0!
02
#43500000
1!
12
0@
1:
07
0/
10
0.
0'
1%
0&
1?
#44000000
0!
02
#44500000
1!
12
1@
1.
15
1'
0?
16
#45000000
0!
02
#45500000
1!
12
0@
17
1/
0.
0'
1&
1?
#46000000
0!
02
#46500000
1!
12
1@
1.
1;
08
05
1'
0?
1<
09
06
#47000000
0!
02
#47500000
1!
12
0@
1=
0:
07
0/
00
11
0.
0'
1$
0%
0&
1?
#48000000
0!
02
#48500000
1!
12
1@
1.
0>
15
1'
0?
0<
#49000000
0!
02
#49500000
1!
12
0@
0=
01
0.
1>
0;
05
0'
0$
1?
#50000000
0!
02
#50500000
1!
12
1@
1.
15
1'
0?
16
#51000000
0!
02
#51500000
1!
12
0@
17
1/
0.
0'
1&
1?
#52000000
0!
02
#52500000
1!
12
1@
1.
18
05
1'
0?
19
06
#53000000
0!
02
#53500000
1!
12
0@
1:
07
0/
10
0.
0'
1%
0&
1?
#54000000
0!
02
#54500000
1!
12
1@
1.
15
1'
0?
16
#55000000
0!
02
#55500000
1!
12
0@
17
1/
0.
0'
1&
1?
#56000000
0!
02
#56500000
1!
12
1@
1.
1;
08
05
1'
0?
1<
09
06
#57000000
0!
02
#57500000
1!
12
0@
1=
0:
07
0/
00
11
0.
0'
1$
0%
0&
1?
#58000000
0!
02
#58500000
1!
12
1@
1.
0>
15
1'
0?
0<
#59000000
0!
02
#59500000
1!
12
0@
0=
01
0.
1>
0;
05
0'
0$
1?
#60000000
0!
02
#60500000
1!
12
1@
1.
15
1'
0?
16
#61000000
0!
02
#61500000
1!
12
0@
17
1/
0.
0'
1&
1?
#62000000
0!
02
#62500000
1!
12
1@
1.
18
05
1'
0?
19
06
#63000000
0!
02
#63500000
1!
12
0@
1:
07
0/
10
0.
0'
1%
0&
1?
#64000000
0!
02
#64500000
1!
12
1@
1.
15
1'
0?
16
#65000000
0!
02
#65500000
1!
12
0@
17
1/
0.
0'
1&
1?
#66000000
0!
02
#66500000
1!
12
1@
1.
1;
08
05
1'
0?
1<
09
06
#67000000
0!
02
#67500000
1!
12
0@
1=
0:
07
0/
00
11
0.
0'
1$
0%
0&
1?
#68000000
0!
02
#68500000
1!
12
1@
1.
0>
15
1'
0?
0<
#69000000
0!
02
#69500000
1!
12
0@
0=
01
0.
1>
0;
05
0'
0$
1?
#70000000
0!
02
#70500000
1!
12
1@
1.
15
1'
0?
16
#71000000
0!
02
#71500000
1!
12
0@
17
1/
0.
0'
1&
1?
#72000000
0!
02
#72500000
1!
12
1@
1.
18
05
1'
0?
19
06
#73000000
0!
02
#73500000
1!
12
0@
1:
07
0/
10
0.
0'
1%
0&
1?
#74000000
0!
02
#74500000
1!
12
1@
1.
15
1'
0?
16
#75000000
0!
02
#75500000
1!
12
0@
17
1/
0.
0'
1&
1?
#76000000
0!
02
#76500000
1!
12
1@
1.
1;
08
05
1'
0?
1<
09
06
#77000000
0!
02
#77500000
1!
12
0@
1=
0:
07
0/
00
11
0.
0'
1$
0%
0&
1?
#78000000
0!
02
#78500000
1!
12
1@
1.
0>
15
1'
0?
0<
#79000000
0!
02
#79500000
1!
12
0@
0=
01
0.
1>
0;
05
0'
0$
1?
#80000000
0!
02
#80500000
1!
12
1@
1.
15
1'
0?
16
#81000000
0!
02
#81500000
1!
12
0@
17
1/
0.
0'
1&
1?
#82000000
0!
02
#82500000
1!
12
1@
1.
18
05
1'
0?
19
06
#83000000
0!
02
#83500000
1!
12
0@
1:
07
0/
10
0.
0'
1%
0&
1?
#84000000
0!
02
#84500000
1!
12
1@
1.
15
1'
0?
16
#85000000
0!
02
#85500000
1!
12
0@
17
1/
0.
0'
1&
1?
#86000000
0!
02
#86500000
1!
12
1@
1.
1;
08
05
1'
0?
1<
09
06
#87000000
0!
02
#87500000
1!
12
0@
1=
0:
07
0/
00
11
0.
0'
1$
0%
0&
1?
#88000000
0!
02
#88500000
1!
12
1@
1.
0>
15
1'
0?
0<
#89000000
0!
02
#89500000
1!
12
0@
0=
01
0.
1>
0;
05
0'
0$
1?
#90000000
0!
02
#90500000
1!
12
1@
1.
15
1'
0?
16
#91000000
0!
02
#91500000
1!
12
0@
17
1/
0.
0'
1&
1?
#92000000
0!
02
#92500000
1!
12
1@
1.
18
05
1'
0?
19
06
#93000000
0!
02
#93500000
1!
12
0@
1:
07
0/
10
0.
0'
1%
0&
1?
#94000000
0!
02
#94500000
1!
12
1@
1.
15
1'
0?
16
#95000000
0!
02
#95500000
1!
12
0@
17
1/
0.
0'
1&
1?
#96000000
0!
02
#96500000
1!
12
1@
1.
1;
08
05
1'
0?
1<
09
06
#97000000
0!
02
#97500000
1!
12
0@
1=
0:
07
0/
00
11
0.
0'
1$
0%
0&
1?
#98000000
0!
02
#98500000
1!
12
1@
1.
0>
15
1'
0?
0<
#99000000
0!
02
#99500000
1!
12
0@
0=
01
0.
1>
0;
05
0'
0$
1?
